VRGymEnv/Binaries/Win64/VRGymEnv.pdb	2019-01-13T02:20:21.773Z
Engine/Binaries/ThirdParty/PhysX3/Win64/VS2015/PxFoundationPROFILE_x64.pdb	2018-10-20T22:33:22.295Z
Engine/Binaries/ThirdParty/PhysX3/Win64/VS2015/PxPvdSDKPROFILE_x64.pdb	2018-10-20T22:33:22.527Z
Engine/Binaries/ThirdParty/PhysX3/Win64/VS2015/PhysX3PROFILE_x64.pdb	2018-10-20T22:33:22.199Z
Engine/Binaries/ThirdParty/PhysX3/Win64/VS2015/PhysX3CookingPROFILE_x64.pdb	2018-10-20T22:33:21.729Z
Engine/Binaries/ThirdParty/PhysX3/Win64/VS2015/PhysX3CommonPROFILE_x64.pdb	2018-10-20T22:33:21.618Z
Engine/Binaries/ThirdParty/PhysX3/Win64/VS2015/APEX_ClothingPROFILE_x64.pdb	2018-10-20T22:33:18.528Z
Engine/Binaries/ThirdParty/PhysX3/Win64/VS2015/APEX_LegacyPROFILE_x64.pdb	2018-10-20T22:33:20.004Z
Engine/Binaries/ThirdParty/PhysX3/Win64/VS2015/ApexFrameworkPROFILE_x64.pdb	2018-10-20T22:33:20.552Z
Engine/Binaries/ThirdParty/PhysX3/Win64/VS2015/NvClothPROFILE_x64.pdb	2018-10-20T22:33:20.566Z
